^C:\USERS\JEFFRATH\DOCUMENTS\VISUAL STUDIO 2010\PROJECTS\CONNECTSHIPWCFSERVER\ENCRYPT\STDAFX.CPP
/c /ZI /nologo /W3 /WX- /Od /Oy- /D WIN32 /D _WINDOWS /D _DEBUG /D _USRDLL /D _WINDLL /D _UNICODE /D UNICODE /D _AFXDLL /Gm /EHsc /RTC1 /MDd /GS /fp:precise /Zc:wchar_t /Zc:forScope /Yc"StdAfx.h" /Fp"Debug\Encrypt.pch" /Fo"Debug\\" /Fd"Debug\vc100.pdb" /Gd /TP /analyze- /errorReport:prompt C:\USERS\JEFFRATH\DOCUMENTS\VISUAL STUDIO 2010\PROJECTS\CONNECTSHIPWCFSERVER\ENCRYPT\STDAFX.CPP
^C:\USERS\JEFFRATH\DOCUMENTS\VISUAL STUDIO 2010\PROJECTS\CONNECTSHIPWCFSERVER\ENCRYPT\ENCRYPT.CPP
/c /ZI /nologo /W3 /WX- /Od /Oy- /D WIN32 /D _WINDOWS /D _DEBUG /D _USRDLL /D _WINDLL /D _UNICODE /D UNICODE /D _AFXDLL /Gm /EHsc /RTC1 /MDd /GS /fp:precise /Zc:wchar_t /Zc:forScope /Yu"StdAfx.h" /Fp"Debug\Encrypt.pch" /Fo"Debug\\" /Fd"Debug\vc100.pdb" /Gd /TP /analyze- /errorReport:prompt C:\USERS\JEFFRATH\DOCUMENTS\VISUAL STUDIO 2010\PROJECTS\CONNECTSHIPWCFSERVER\ENCRYPT\ENCRYPT.CPP
