^C:\Users\JEFFRATH\Documents\Visual Studio 2010\Projects\ConnectShipWCFServer\Encrypt\Encrypt.vcxproj
C:\Users\JEFFRATH\Documents\Visual Studio 2010\Projects\ConnectShipWCFServer\Debug\Encrypt.lib
C:\Users\JEFFRATH\Documents\Visual Studio 2010\Projects\ConnectShipWCFServer\Debug\Encrypt.lib
C:\Users\JEFFRATH\Documents\Visual Studio 2010\Projects\ConnectShipWCFServer\Debug\Encrypt.exp
C:\Users\JEFFRATH\Documents\Visual Studio 2010\Projects\ConnectShipWCFServer\Debug\Encrypt.exp
^C:\Users\JEFFRATH\Documents\Visual Studio 2010\Projects\ConnectShipWCFServer\Encrypt\Encrypt.vcxproj
C:\Users\JEFFRATH\Documents\Visual Studio 2010\Projects\ConnectShipWCFServer\Debug\Encrypt.lib
C:\Users\JEFFRATH\Documents\Visual Studio 2010\Projects\ConnectShipWCFServer\Debug\Encrypt.lib
C:\Users\JEFFRATH\Documents\Visual Studio 2010\Projects\ConnectShipWCFServer\Debug\Encrypt.exp
C:\Users\JEFFRATH\Documents\Visual Studio 2010\Projects\ConnectShipWCFServer\Debug\Encrypt.exp
^C:\Users\JEFFRATH\Documents\Visual Studio 2010\Projects\ConnectShipWCFServer\Encrypt\Encrypt.vcxproj
C:\Users\JEFFRATH\Documents\Visual Studio 2010\Projects\ConnectShipWCFServer\Debug\Encrypt.lib
C:\Users\JEFFRATH\Documents\Visual Studio 2010\Projects\ConnectShipWCFServer\Debug\Encrypt.lib
C:\Users\JEFFRATH\Documents\Visual Studio 2010\Projects\ConnectShipWCFServer\Debug\Encrypt.exp
C:\Users\JEFFRATH\Documents\Visual Studio 2010\Projects\ConnectShipWCFServer\Debug\Encrypt.exp
