^C:\USERS\JEFFRATH\DOCUMENTS\VISUAL STUDIO 2010\PROJECTS\CONNECTSHIPWCFSERVER\ENCRYPT\DEBUG\ENCRYPT.DLL.EMBED.MANIFEST.RES|C:\USERS\JEFFRATH\DOCUMENTS\VISUAL STUDIO 2010\PROJECTS\CONNECTSHIPWCFSERVER\ENCRYPT\DEBUG\ENCRYPT.OBJ|C:\USERS\JEFFRATH\DOCUMENTS\VISUAL STUDIO 2010\PROJECTS\CONNECTSHIPWCFSERVER\ENCRYPT\DEBUG\ENCRYPT.RES|C:\USERS\JEFFRATH\DOCUMENTS\VISUAL STUDIO 2010\PROJECTS\CONNECTSHIPWCFSERVER\ENCRYPT\DEBUG\STDAFX.OBJ
/ERRORREPORT:PROMPT /OUT:"C:\Users\JEFFRATH\Documents\Visual Studio 2010\Projects\ConnectShipWCFServer\Debug\Encrypt.dll" /INCREMENTAL /NOLOGO /DEF:".\Encrypt.def" /MANIFEST /ManifestFile:"Debug\Encrypt.dll.intermediate.manifest" /MANIFESTUAC:"level='asInvoker' uiAccess='false'" /DEBUG /PDB:"C:\Users\JEFFRATH\Documents\Visual Studio 2010\Projects\ConnectShipWCFServer\Debug\Encrypt.pdb" /SUBSYSTEM:WINDOWS /TLBID:1 /DYNAMICBASE /NXCOMPAT /IMPLIB:"C:\Users\JEFFRATH\Documents\Visual Studio 2010\Projects\ConnectShipWCFServer\Debug\Encrypt.lib" /MACHINE:X86 /DLL Debug\Encrypt.res
Debug\Encrypt.dll.embed.manifest.res
Debug\Encrypt.obj
Debug\stdafx.obj
