^C:\USERS\JEFFRATH\DOCUMENTS\VISUAL STUDIO 2010\PROJECTS\CONNECTSHIPWCFSERVER\ENCRYPT\DEBUG\ENCRYPT.DLL.EMBED.MANIFEST.RES|C:\USERS\JEFFRATH\DOCUMENTS\VISUAL STUDIO 2010\PROJECTS\CONNECTSHIPWCFSERVER\ENCRYPT\DEBUG\ENCRYPT.OBJ|C:\USERS\JEFFRATH\DOCUMENTS\VISUAL STUDIO 2010\PROJECTS\CONNECTSHIPWCFSERVER\ENCRYPT\DEBUG\ENCRYPT.RES|C:\USERS\JEFFRATH\DOCUMENTS\VISUAL STUDIO 2010\PROJECTS\CONNECTSHIPWCFSERVER\ENCRYPT\DEBUG\STDAFX.OBJ
C:\USERS\JEFFRATH\DOCUMENTS\VISUAL STUDIO 2010\PROJECTS\CONNECTSHIPWCFSERVER\DEBUG\ENCRYPT.ILK
C:\USERS\JEFFRATH\DOCUMENTS\VISUAL STUDIO 2010\PROJECTS\CONNECTSHIPWCFSERVER\DEBUG\ENCRYPT.DLL
C:\USERS\JEFFRATH\DOCUMENTS\VISUAL STUDIO 2010\PROJECTS\CONNECTSHIPWCFSERVER\ENCRYPT\DEBUG\ENCRYPT.DLL.INTERMEDIATE.MANIFEST
C:\USERS\JEFFRATH\DOCUMENTS\VISUAL STUDIO 2010\PROJECTS\CONNECTSHIPWCFSERVER\DEBUG\ENCRYPT.PDB
